from_stop_id,to_stop_id,transfer_type,min_transfer_time
25317,25316,,
24393,25316,,
56227,56239,,
47947,56239,,
46337,56239,,
46637,56239,,
56427,56239,,
55887,56239,,
56126,56239,,
46636,56239,,
55963,56239,,
55969,56239,,
56477,56239,,
57523,56239,,
45766,56239,,
56847,56239,,
45987,56239,,
66166,56239,,
56846,56239,,
45959,56239,,
45983,56239,,
66167,56239,,
57567,56239,,
56489,56239,,
57553,56239,,
56127,56239,,
56426,56239,,
76647,76759,,
76719,76759,,
79823,76759,,
76646,76759,,
76753,76759,,
76773,76759,,
76779,76759,,
79877,88973,,
88977,88973,,
79823,88973,,
88953,88973,,
81226,88973,,
89913,88973,,
88976,88973,,
89963,88973,,
99157,88973,,
99496,88973,,
88777,88973,,
95319,94483,,
95423,94483,,
94487,94483,,
10059,94483,,
82127,72487,,
71599,72487,,
72746,72487,,
88973,79977,,
79877,79977,,
99396,79977,,
89277,79977,,
89869,79977,,
71726,79977,,
79487,79977,,
81726,79977,,
71926,79977,,
79486,79977,,
71839,79977,,
79739,79977,,
78887,79977,,
78883,79977,,
79823,79977,,
79879,79977,,
79257,79977,,
79266,79977,,
91223,79977,,
81226,79977,,
71826,79977,,
79973,79977,,
88976,79977,,
89963,79977,,
71823,79977,,
99496,79977,,
88586,79977,,
76759,76647,,
76646,76647,,
76753,76647,,
76779,76647,,
56239,56227,,
47947,56227,,
46337,56227,,
46637,56227,,
56427,56227,,
55887,56227,,
56126,56227,,
46636,56227,,
55963,56227,,
55969,56227,,
56477,56227,,
57523,56227,,
45766,56227,,
56847,56227,,
45987,56227,,
56846,56227,,
45959,56227,,
45983,56227,,
45426,56227,,
46336,56227,,
56489,56227,,
56127,56227,,
56426,56227,,
41657,41556,,
41553,41556,,
41559,41556,,
25316,25317,,
24393,25317,,
77557,78539,,
77556,78539,,
45513,45517,,
45506,45517,,
35979,35973,,
35889,35973,,
35976,35973,,
35977,35973,,
45276,35973,,
36823,35973,,
63979,63973,,
26686,26687,,
51649,51536,,
51733,51536,,
26687,26686,,
63973,63979,,
35973,35979,,
35889,35979,,
35976,35979,,
35977,35979,,
36823,35979,,
81726,91666,,
91667,91666,,
99157,91666,,
99496,91666,,
95213,95226,,
95219,95226,,
94269,95226,,
85927,95226,,
78539,77557,,
77556,77557,,
47356,47647,,
84636,84439,,
84637,84439,,
84569,84439,,
84623,84439,,
71646,71639,,
71647,71639,,
91816,99899,,
99893,99899,,
91817,99899,,
21806,88483,,
21807,88483,,
84439,84636,,
84637,84636,,
84623,84636,,
78539,77556,,
77557,77556,,
99689,91766,,
91827,91766,,
95789,95783,,
96823,95783,,
15173,95783,,
95876,95783,,
97679,97777,,
97673,97777,,
95783,95789,,
96823,95789,,
15173,95789,,
95876,95789,,
47549,47746,,
47543,47746,,
19457,19257,,
49657,19257,,
99656,99457,,
99657,99457,,
99243,99457,,
99249,99457,,
99256,99457,,
59556,59457,,
58596,59457,,
58597,59457,,
88973,79877,,
79977,79877,,
99396,79877,,
89277,79877,,
79126,79877,,
89869,79877,,
78899,79877,,
71726,79877,,
79487,79877,,
71237,79877,,
71926,79877,,
79486,79877,,
71236,79877,,
79477,79877,,
81526,79877,,
71997,79877,,
71839,79877,,
79739,79877,,
89377,79877,,
78889,79877,,
78466,79877,,
78887,79877,,
78883,79877,,
79823,79877,,
79879,79877,,
79257,79877,,
79266,79877,,
91223,79877,,
81226,79877,,
71826,79877,,
53671,79877,,
53761,79877,,
53771,79877,,
53781,79877,,
53751,79877,,
79973,79877,,
88976,79877,,
89963,79877,,
71823,79877,,
99496,79877,,
78897,79877,,
88576,79877,,
88586,79877,,
71833,79877,,
11726,11727,,
11656,11727,,
11967,11727,,
11417,11727,,
11866,11727,,
11736,11727,,
11737,11727,,
11717,11727,,
52369,52363,,
52367,52363,,
52363,52369,,
52367,52369,,
11727,11726,,
11656,11726,,
11967,11726,,
11569,11726,,
11417,11726,,
29196,11726,,
11866,11726,,
11736,11726,,
11737,11726,,
11717,11726,,
88973,99396,,
11726,99396,,
89869,99396,,
99357,99396,,
81726,99396,,
71926,99396,,
99586,99396,,
78883,99396,,
91223,99396,,
81226,99396,,
88976,99396,,
89963,99396,,
99157,99396,,
99496,99396,,
88586,99396,,
59457,59556,,
58596,59556,,
58597,59556,,
93856,93757,,
42116,41197,,
84439,84637,,
84636,84637,,
84623,84637,,
98163,98169,,
21706,98169,,
21707,98169,,
24453,24579,,
24676,24579,,
24677,24579,,
24579,24453,,
98169,98163,,
21706,98163,,
21707,98163,,
41197,42116,,
77696,78247,,
78449,78247,,
47156,47157,,
47169,47157,,
37756,47157,,
47163,47157,,
88166,88167,,
33743,32767,,
32763,32767,,
32769,32767,,
47226,36997,,
98723,98729,,
98527,98729,,
35973,35889,,
35979,35889,,
35976,35889,,
35977,35889,,
45276,35889,,
36829,35889,,
35576,35889,,
36823,35889,,
88167,88166,,
47157,47156,,
47169,47156,,
47163,47156,,
78247,77696,,
77787,77696,,
78643,77696,,
53636,53727,,
53617,53727,,
53846,53727,,
36277,36296,,
36397,36296,,
37116,36296,,
39169,39163,,
39167,39163,,
39166,39163,,
38629,38623,,
21206,38623,,
21207,38623,,
23627,23626,,
23543,23626,,
23427,23626,,
23549,23626,,
74589,74587,,
74896,74587,,
28983,28989,,
28996,28989,,
28997,28989,,
79977,89277,,
79877,89277,,
89869,89277,,
71926,89277,,
71839,89277,,
89377,89277,,
91139,89277,,
78883,89277,,
79823,89277,,
81226,89277,,
89913,89277,,
53771,89277,,
79973,89277,,
89963,89277,,
99157,89277,,
88586,89277,,
38623,38629,,
21206,38629,,
21207,38629,,
39163,39169,,
39167,39169,,
39166,39169,,
58473,58479,,
58263,58279,,
58367,58279,,
58376,58279,,
29427,29423,,
29226,29423,,
29626,29423,,
16367,16767,,
16266,16767,,
29423,29427,,
29626,29427,,
58479,58473,,
71559,79146,,
79547,79146,,
59796,59786,,
59797,59786,,
59783,59786,,
59886,59786,,
59789,59786,,
59883,59786,,
59889,59786,,
59793,59786,,
59787,59786,,
59799,59786,,
32156,32169,,
32257,32169,,
32266,32169,,
32253,32169,,
32256,32169,,
32166,32169,,
32167,32169,,
32179,32169,,
38693,38696,,
96486,96877,,
85593,85599,,
28383,28389,,
28476,28389,,
28387,28389,,
28389,28383,,
28476,28383,,
28387,28383,,
85599,85593,,
79613,79619,,
79627,79619,,
78653,79619,,
79653,79619,,
79626,79619,,
85279,85273,,
78393,78399,,
21906,78399,,
21907,78399,,
51976,52963,,
51587,52963,,
78399,78393,,
21906,78393,,
21907,78393,,
79619,79613,,
79627,79613,,
78653,79613,,
79653,79613,,
79659,79613,,
78659,79613,,
79626,79613,,
85779,85773,,
85773,85779,,
45229,45219,,
44249,45219,,
44243,45219,,
45316,45219,,
45217,45219,,
44273,45219,,
45213,45219,,
26743,26749,,
74233,74239,,
76729,76757,,
35973,35976,,
35979,35976,,
35889,35976,,
35977,35976,,
45276,35976,,
36823,35976,,
35973,35977,,
35979,35977,,
35889,35977,,
35976,35977,,
36823,35977,,
56396,56383,,
56497,56383,,
74239,74233,,
53277,43863,,
53276,43863,,
43777,43863,,
43776,43863,,
35387,35386,,
82583,82589,,
82897,82589,,
82387,82589,,
82586,82589,,
93436,93226,,
93437,93226,,
77146,93226,,
29763,29769,,
22406,29769,,
22407,29769,,
21113,21239,,
83439,98547,,
98029,98547,,
98016,98547,,
98013,98547,,
98023,98547,,
98033,98547,,
98517,98547,,
92999,92993,,
21349,21233,,
21113,21233,,
29769,29763,,
22406,29763,,
22407,29763,,
82589,82583,,
82897,82583,,
82387,82583,,
82586,82583,,
35386,35387,,
26557,26556,,
26559,26556,,
63877,63876,,
63366,63876,,
63567,63876,,
63987,63876,,
11727,11656,,
11726,11656,,
11866,11656,,
11737,11656,,
11717,11656,,
75833,76769,,
76643,76769,,
74799,76769,,
77749,76769,,
76667,76769,,
86683,86856,,
21756,21769,,
21757,21769,,
22387,11419,,
21193,11419,,
21756,21763,,
21757,21763,,
86683,86947,,
11727,11967,,
11726,11967,,
11866,11967,,
11717,11967,,
63876,63877,,
63366,63877,,
26556,26557,,
26336,26557,,
26559,26557,,
26187,26186,,
32259,32456,,
32267,32456,,
26186,26187,,
28696,28763,,
28779,28763,,
28656,28763,,
28136,28763,,
28137,28763,,
29933,28763,,
29939,28763,,
27289,28763,,
29436,28763,,
29327,28763,,
27283,28763,,
28533,28763,,
53366,53367,,
53369,53367,,
53363,53367,,
46427,46526,,
53367,53366,,
53369,53366,,
53363,53366,,
87673,98379,,
98253,98379,,
99213,98379,,
99629,98379,,
10209,98379,,
10203,98379,,
59416,49516,,
49916,49516,,
49116,49516,,
39716,49516,,
39817,49516,,
48197,49516,,
48897,49516,,
59417,49516,,
48953,49516,,
48993,49516,,
49593,49516,,
49599,49516,,
48969,49516,,
49517,49516,,
49529,49516,,
56137,56136,,
46936,56136,,
46949,56136,,
56133,56136,,
13243,13249,,
13246,13249,,
13247,13249,,
98953,98959,,
21606,98959,,
21607,98959,,
26693,26697,,
98959,98953,,
21606,98953,,
21607,98953,,
13249,13243,,
13246,13243,,
13247,13243,,
86236,86157,,
86237,86157,,
86276,86157,,
56136,56137,,
46936,56137,,
46949,56137,,
56133,56137,,
49989,49977,,
59173,49977,,
49986,49977,,
59196,49977,,
91359,91356,,
91393,91356,,
91457,91356,,
77537,77336,,
45219,45229,,
45417,45229,,
45416,45229,,
45316,45229,,
45217,45229,,
45213,45229,,
36713,36719,,
36913,35989,,
35989,36913,,
25393,36913,,
36719,36713,,
16943,36713,,
77336,77537,,
77723,77537,,
91356,91359,,
91393,91359,,
91457,91359,,
42989,52197,,
52183,52197,,
52196,52197,,
69419,69413,,
22006,69413,,
22007,69413,,
53113,53119,,
95176,95619,,
95613,95619,,
95517,95619,,
76853,76859,,
76859,76853,,
62196,62187,,
62183,62187,,
93837,93756,,
58489,58483,,
23933,23929,,
23939,23929,,
88973,79126,,
76647,79126,,
79877,79126,,
89869,79126,,
68767,79126,,
68547,79126,,
79487,79126,,
71926,79126,,
79486,79126,,
78883,79126,,
79257,79126,,
79266,79126,,
81226,79126,,
68776,79126,,
68887,79126,,
88976,79126,,
89963,79126,,
88586,79126,,
58483,58489,,
93756,93837,,
21406,28433,,
21407,28433,,
21406,28349,,
21407,28349,,
91219,99193,,
91216,99193,,
91117,99193,,
89869,81926,,
81726,81926,,
81929,81926,,
91139,81926,,
91223,81926,,
81226,81926,,
53261,81926,,
91277,81926,,
91186,81926,,
89963,81926,,
99496,81926,,
74853,74857,,
74856,74857,,
74859,74857,,
99193,91219,,
91216,91219,,
91117,91219,,
49547,49533,,
22206,49533,,
22207,49533,,
49547,49539,,
22206,49539,,
22207,49539,,
42237,42219,,
42146,42219,,
42329,42219,,
31853,42219,,
32253,42219,,
32166,42219,,
32167,42219,,
32179,42219,,
41116,42219,,
10503,42219,,
10509,42219,,
33343,33136,,
21193,12947,,
22396,12947,,
31256,22386,,
22377,22386,,
22387,22386,,
21193,22386,,
22396,22386,,
94549,54641,,
79977,89869,,
89277,89869,,
81926,89869,,
99357,89869,,
81726,89869,,
71926,89869,,
91139,89869,,
81226,89869,,
89963,89869,,
99157,89869,,
99496,89869,,
99347,89869,,
53777,89869,,
41556,41657,,
41553,41657,,
41559,41657,,
97253,97259,,
97256,97259,,
87956,97259,,
97157,97259,,
47746,47549,,
47543,47549,,
47546,47549,,
47547,47549,,
79619,79627,,
79613,79627,,
26177,26263,,
82589,82897,,
82583,82897,,
82586,82897,,
54949,53976,,
54943,53976,,
53977,53976,,
36296,36277,,
36586,36277,,
36357,36277,,
36436,36277,,
36397,36277,,
37116,36277,,
48723,48729,,
48626,48729,,
48727,48729,,
23626,23627,,
23543,23627,,
23427,23627,,
23549,23627,,
39163,39167,,
39169,39167,,
25549,25447,,
25543,25447,,
25446,25447,,
95619,95176,,
95613,95176,,
89123,78797,,
89483,78797,,
89489,78797,,
79919,78797,,
78769,78797,,
88496,78797,,
78996,78797,,
69716,78797,,
69717,78797,,
88497,78797,,
78693,78797,,
78896,78797,,
79117,78797,,
78549,78797,,
35739,35613,,
94483,95319,,
95423,95319,,
94487,95319,,
35613,35739,,
15256,95899,,
95893,95899,,
63826,62787,,
97259,97253,,
97256,97253,,
87956,97253,,
97157,97253,,
58279,58263,,
58367,58263,,
58376,58263,,
26526,26727,,
88887,98249,,
98346,98249,,
88846,98249,,
98467,98249,,
99223,98249,,
99929,99917,,
99923,99917,,
99816,99917,,
98729,98723,,
98527,98723,,
26736,26739,,
26426,26739,,
26637,26739,,
26733,26739,,
26783,26789,,
55373,45467,,
55379,45467,,
73129,62983,,
62769,62983,,
41196,31997,,
41189,31997,,
41183,31997,,
11449,19677,,
19676,19677,,
19783,19677,,
11527,19677,,
59736,59737,,
59827,59737,,
59737,59736,,
59827,59736,,
11449,19676,,
19677,19676,,
19783,19676,,
11527,19676,,
31997,41196,,
41189,41196,,
41183,41196,,
64986,64987,,
64993,64987,,
55426,55427,,
55413,55427,,
55419,55427,,
55427,55426,,
55413,55426,,
55419,55426,,
64987,64986,,
64993,64986,,
86969,86967,,
86949,86967,,
86893,86967,,
86943,86967,,
96186,86967,,
56183,56189,,
12177,92776,,
12176,92776,,
92887,92776,,
56189,56183,,
67159,67153,,
66477,67153,,
66596,67153,,
66496,67153,,
14396,14387,,
14586,14387,,
14587,14387,,
28763,28696,,
28779,28696,,
28136,28696,,
28137,28696,,
29933,28696,,
29939,28696,,
27283,28696,,
28533,28696,,
61623,61736,,
61539,61736,,
61736,61623,,
61539,61623,,
28763,28779,,
28696,28779,,
28656,28779,,
28136,28779,,
28137,28779,,
29933,28779,,
29939,28779,,
27289,28779,,
29436,28779,,
29327,28779,,
27283,28779,,
28533,28779,,
14387,14396,,
14586,14396,,
14587,14396,,
99499,89986,,
99593,89986,,
92323,92329,,
99499,91237,,
99593,91237,,
91227,91237,,
74586,75223,,
74577,75223,,
46276,46253,,
46257,46253,,
46269,46253,,
89576,89787,,
89787,89576,,
83976,83887,,
57636,57637,,
57637,57636,,
28389,28476,,
28383,28476,,
28387,28476,,
83887,83976,,
32617,31693,,
78949,78943,,
85756,85757,,
78943,78949,,
92776,12177,,
92887,12177,,
52646,52213,,
52236,52213,,
52237,52213,,
72356,72357,,
72457,72357,,
72466,72357,,
72457,72356,,
92776,12176,,
92887,12176,,
12449,12453,,
12656,12453,,
16327,16336,,
16336,16327,,
61613,69173,,
69179,69173,,
46186,46183,,
84853,84859,,
94156,84859,,
84859,84853,,
94156,84853,,
28113,27199,,
24116,24117,,
24117,24116,,
27199,28113,,
36646,36656,,
27757,27653,,
27636,27653,,
26793,27653,,
27639,27653,,
22153,22177,,
22189,22177,,
22346,22177,,
33433,33213,,
33229,33213,,
86883,86926,,
86927,86926,,
88976,86926,,
56239,47947,,
56227,47947,,
57887,47947,,
56477,47947,,
57523,47947,,
56489,47947,,
57553,47947,,
47846,47947,,
44683,54267,,
78797,89123,,
78896,89123,,
78797,89483,,
78896,89483,,
15516,14593,,
15517,14593,,
43553,43447,,
43559,43447,,
56239,46337,,
56227,46337,,
56239,46637,,
56227,46637,,
56239,56427,,
56227,56427,,
56239,55887,,
56227,55887,,
81226,72396,,
63697,63696,,
29279,63696,,
59757,59856,,
82127,82126,,
71773,72486,,
71599,72486,,
55493,56616,,
95587,95473,,
72487,82127,,
82126,82127,,
82227,82127,,
71773,82127,,
72746,82127,,
82127,82227,,
19157,99867,,
19176,99867,,
59856,59757,,
59636,59757,,
99223,99217,,
54556,54647,,
63696,63697,,
65753,65976,,
65167,65146,,
56239,56126,,
56227,56126,,
56477,56126,,
57523,56126,,
45766,56126,,
45987,56126,,
45426,56126,,
56489,56126,,
56127,56126,,
56239,46636,,
56227,46636,,
43553,43446,,
43559,43446,,
15516,14499,,
15517,14499,,
78797,89489,,
78896,89489,,
78797,79919,,
78896,79919,,
78797,78769,,
78896,78769,,
69826,69919,,
35973,45276,,
35889,45276,,
35976,45276,,
35977,45276,,
32456,32259,,
32357,32259,,
11726,11569,,
11967,11569,,
11367,11569,,
11269,11569,,
11866,11569,,
11717,11569,,
79877,78899,,
78887,78899,,
79823,78899,,
81226,78899,,
25929,25916,,
25923,25916,,
14593,15516,,
14499,15516,,
75637,75636,,
65283,65566,,
65289,65566,,
33636,33627,,
65283,65627,,
65289,65627,,
14593,15517,,
14499,15517,,
25929,25917,,
25923,25917,,
67516,67517,,
78116,78117,,
11967,11367,,
11569,11367,,
11269,11367,,
11866,11367,,
32357,32267,,
32456,32463,,
69826,69913,,
69827,69913,,
51536,51649,,
78533,77683,,
77459,77683,,
86639,86883,,
86927,86883,,
88913,87993,,
12976,66976,,
12993,66976,,
27959,27947,,
27953,27947,,
79126,68767,,
68776,68767,,
68887,68767,,
86883,86639,,
61636,86639,,
61637,86639,,
60019,86639,,
60029,86639,,
60027,86639,,
78533,77689,,
78519,77689,,
86967,86969,,
96186,86969,,
86967,86949,,
86943,86949,,
97673,96899,,
99917,99929,,
99816,99929,,
93296,94429,,
79977,71726,,
79877,71726,,
71926,71726,,
71839,71726,,
79823,71726,,
81226,71726,,
72643,71726,,
56489,57566,,
57553,57566,,
37759,37746,,
37773,37746,,
27959,27946,,
27953,27946,,
97259,97256,,
97253,97256,,
87956,97256,,
97157,97256,,
47546,47747,,
37759,37747,,
37773,37747,,
47947,57887,,
79126,68547,,
68887,68547,,
79977,79487,,
79877,79487,,
79126,79487,,
71926,79487,,
79486,79487,,
79477,79487,,
71839,79487,,
78883,79487,,
79823,79487,,
81226,79487,,
68887,79487,,
88586,79487,,
92399,92453,,
81226,92453,,
54751,92453,,
99496,92453,,
94429,93296,,
94549,93296,,
93287,93296,,
84746,93296,,
83819,93296,,
95783,96823,,
95789,96823,,
99917,99923,,
99816,99923,,
93977,93993,,
86967,86893,,
96186,86893,,
89926,88993,,
59326,59329,,
59327,59329,,
21357,21356,,
99986,11216,,
11219,11216,,
11223,11216,,
19397,11216,,
19197,11216,,
11216,99986,,
11219,99986,,
11223,99986,,
91957,99986,,
19397,99986,,
57961,99986,,
99496,99986,,
81226,61866,,
58196,59156,,
39849,39756,,
39843,39756,,
38496,39356,,
28986,29956,,
28993,29956,,
99457,99656,,
49657,49656,,
49653,49656,,
49659,49656,,
49657,19456,,
19257,19457,,
49657,19457,,
19257,49657,,
49656,49657,,
19456,49657,,
19457,49657,,
49653,49657,,
49659,49657,,
19256,49657,,
99243,89957,,
99249,89957,,
99256,89957,,
99457,99657,,
28986,29957,,
28993,29957,,
38796,39557,,
38497,39557,,
39849,39747,,
39843,39747,,
48297,49257,,
48696,49647,,
58196,49957,,
58996,59867,,
81226,61867,,
61986,61987,,
61997,61987,,
81226,61987,,
79877,71237,,
71236,71237,,
81226,71237,,
99396,99357,,
99586,99357,,
81226,99357,,
89963,99357,,
99157,99357,,
99496,99357,,
99579,99357,,
11727,11417,,
11726,11417,,
58416,58413,,
57397,58333,,
58357,58363,,
19677,19783,,
19676,19783,,
19677,11527,,
19676,11527,,
19287,11527,,
79977,81726,,
99396,81726,,
81926,81726,,
89869,81726,,
71926,81726,,
81929,81726,,
91139,81726,,
91223,81726,,
81226,81726,,
89913,81726,,
53781,81726,,
53261,81726,,
91186,81726,,
89963,81726,,
99157,81726,,
99496,81726,,
99347,81726,,
79977,71926,,
79877,71926,,
89277,71926,,
89869,71926,,
71726,71926,,
79487,71926,,
81726,71926,,
79486,71926,,
71839,71926,,
78887,71926,,
78883,71926,,
79823,71926,,
79879,71926,,
79257,71926,,
79266,71926,,
81226,71926,,
71826,71926,,
98833,71926,,
79973,71926,,
88976,71926,,
89963,71926,,
71823,71926,,
88586,71926,,
71833,71926,,
57989,71926,,
79977,79486,,
79877,79486,,
79126,79486,,
79487,79486,,
71926,79486,,
79477,79486,,
71839,79486,,
78883,79486,,
79823,79486,,
79257,79486,,
81226,79486,,
68887,79486,,
88586,79486,,
79877,71236,,
71237,71236,,
81226,71236,,
61987,61986,,
61997,61986,,
81226,61986,,
52227,52226,,
31867,31766,,
31639,31766,,
23619,23613,,
95963,95969,,
94323,94519,,
94329,94519,,
93856,94519,,
93599,94519,,
23613,23619,,
52226,52227,,
52437,52227,,
61987,61997,,
61986,61997,,
81226,61997,,
79877,79477,,
79487,79477,,
79486,79477,,
81226,79477,,
93356,93257,,
92483,93257,,
16383,16289,,
16296,16289,,
96897,16289,,
36997,47226,,
39726,39729,,
35889,36829,,
36823,36829,,
35377,35176,,
25473,25479,,
11569,11269,,
11367,11269,,
11263,11269,,
91957,11269,,
11866,11269,,
57961,11269,,
11216,11219,,
99986,11219,,
11223,11219,,
19397,11219,,
19197,11219,,
99396,99586,,
99357,99586,,
81226,99586,,
99496,99586,,
63947,63946,,
64127,64126,,
35557,35646,,
26627,26626,,
17527,17626,,
88587,88546,,
68496,68536,,
68497,68536,,
97529,97556,,
78449,78426,,
77696,77787,,
78643,77787,,
97529,97557,,
97523,97557,,
27653,27757,,
27636,27757,,
27639,27757,,
78166,78197,,
88546,88587,,
98249,88887,,
98346,88887,,
88846,88887,,
98467,88887,,
97363,88887,,
99223,88887,,
17716,16977,,
35276,35277,,
63946,63947,,
71997,72727,,
71839,72727,,
72646,72727,,
81226,72727,,
72643,72727,,
11269,11263,,
91957,11263,,
57961,11263,,
12559,12553,,
25479,25473,,
25286,25473,,
39726,39723,,
39627,39723,,
32767,33743,,
58413,57397,,
16289,16383,,
16296,16383,,
96897,16383,,
16319,16383,,
25723,25736,,
18539,17866,,
79877,81526,,
81226,81526,,
53781,81526,,
99496,81526,,
27653,27636,,
27757,27636,,
27639,27636,,
28556,28557,,
79877,71997,,
81226,71997,,
49439,71997,,
79977,71839,,
79877,71839,,
89277,71839,,
71726,71839,,
79487,71839,,
71926,71839,,
79486,71839,,
79823,71839,,
79879,71839,,
79257,71839,,
79266,71839,,
81226,71839,,
71826,71839,,
79973,71839,,
71823,71839,,
71833,71839,,
57989,71839,,
88973,88977,,
89869,88977,,
99586,88977,,
88953,88977,,
81226,88977,,
89913,88977,,
88976,88977,,
99157,88977,,
99496,88977,,
97773,98567,,
25723,25727,,
25729,25727,,
71839,72646,,
81226,72646,,
72643,72646,,
54267,54276,,
44679,54276,,
44683,54276,,
45137,45136,,
26357,26366,,
16977,17716,,
17157,17266,,
98467,98526,,
98249,98346,,
88887,98346,,
88846,98346,,
98467,98346,,
97363,98346,,
99223,98346,,
98249,88846,,
88887,88846,,
98346,88846,,
98467,88846,,
99223,88846,,
79517,78366,,
68577,78166,,
78197,78166,,
68577,68496,,
59757,59836,,
43687,43796,,
43696,43796,,
44567,44566,,
27937,37466,,
37657,38326,,
38826,38326,,
38847,38326,,
74589,74296,,
17323,17426,,
17323,17327,,
17339,17327,,
75723,74797,,
74896,74797,,
27937,38327,,
38826,38327,,
27936,38327,,
38847,38327,,
38847,37467,,
44566,44567,,
43796,43687,,
43696,43687,,
53197,43687,,
59757,59647,,
68536,68497,,
98249,98467,,
88887,98467,,
98526,98467,,
98346,98467,,
88846,98467,,
97363,98467,,
99223,98467,,
17266,17157,,
17626,17527,,
26366,26357,,
26626,26627,,
26616,26627,,
35646,35557,,
45136,45137,,
64126,64127,,
84439,84569,,
84623,84569,,
36163,36169,,
26967,36169,,
36176,36169,,
23239,22269,,
22263,22269,,
22267,22269,,
29226,29119,,
54641,94549,,
93296,94549,,
99396,81929,,
81926,81929,,
89869,81929,,
81726,81929,,
91139,81929,,
91223,81929,,
81226,81929,,
89963,81929,,
99157,81929,,
99496,81929,,
41926,59483,,
51317,59483,,
59483,41926,,
59483,51317,,
59489,51317,,
29427,29226,,
22269,22263,,
22267,22263,,
48217,48223,,
36169,36163,,
26967,36163,,
36176,36163,,
79877,91383,,
99396,91383,,
81926,91383,,
99357,91383,,
91276,91383,,
91139,91383,,
81226,91383,,
53261,91383,,
91277,91383,,
70941,91383,,
91186,91383,,
99496,91383,,
31206,29993,,
55427,55413,,
55426,55413,,
55419,55413,,
56729,55663,,
56653,55663,,
57643,67273,,
87636,77843,,
69127,69113,,
59516,69113,,
69179,61613,,
39329,39433,,
22559,22643,,
22643,22559,,
39433,39329,,
38297,39329,,
75493,75497,,
75886,75497,,
22836,22729,,
22727,22729,,
21239,21349,,
21233,21349,,
55427,55419,,
55426,55419,,
55413,55419,,
56729,55419,,
64176,64173,,
64177,64173,,
64976,74183,,
78819,77893,,
77879,77893,,
81226,77893,,
79619,78653,,
79613,78653,,
79619,79653,,
79613,79653,,
72667,72633,,
79613,79659,,
79613,78659,,
76759,76719,,
76647,76719,,
64476,64969,,
19507,11249,,
22836,22723,,
22727,22723,,
33213,33223,,
33219,33433,,
54289,54283,,
54293,54283,,
54416,54283,,
22106,59533,,
22107,59533,,
56239,55963,,
56227,55963,,
89726,89713,,
89727,89713,,
67737,67776,,
66667,66553,,
66667,56593,,
56277,56593,,
89726,89719,,
89727,89719,,
93296,93287,,
79977,79739,,
79877,79739,,
78889,79739,,
78887,79739,,
79823,79739,,
79879,79739,,
81226,79739,,
79973,79739,,
76427,76216,,
65467,65466,,
56239,55969,,
56227,55969,,
22106,59539,,
22107,59539,,
54289,54299,,
54293,54299,,
54416,54299,,
33213,33229,,
33219,33229,,
57643,67179,,
19507,11236,,
11206,11236,,
11216,11223,,
99986,11223,,
11219,11223,,
91957,11223,,
19397,11223,,
57961,11223,,
19197,11223,,
55376,55373,,
59326,59323,,
59327,59323,,
58277,58379,,
58357,58379,,
58416,58419,,
57397,58419,,
55376,55379,,
43863,53277,,
58957,58956,,
58939,58956,,
81939,81949,,
89313,89316,,
89327,89316,,
84146,84129,,
84137,84129,,
72737,72736,,
42627,42626,,
25447,25549,,
25446,25549,,
22336,22349,,
22337,22349,,
28163,28169,,
28166,28169,,
92993,92999,,
95383,95289,,
95386,95289,,
95383,95269,,
95386,95269,,
98547,99513,,
91616,92283,,
95289,95383,,
95269,95383,,
95386,95383,,
16943,16633,,
16949,16633,,
22336,22343,,
22337,22343,,
25447,25543,,
25446,25543,,
45426,45427,,
45317,45427,,
45226,45427,,
56239,56477,,
56227,56477,,
47947,56477,,
56126,56477,,
56127,56477,,
47846,56477,,
56239,57523,,
56227,57523,,
47947,57523,,
56126,57523,,
56127,57523,,
47846,57523,,
79877,89377,,
89277,89377,,
81526,89377,,
81226,89377,,
53771,89377,,
99496,89377,,
53777,89377,,
42626,42627,,
52936,52937,,
62726,62727,,
72736,72737,,
84146,84123,,
84137,84123,,
89316,89313,,
89327,89313,,
81939,81943,,
58956,58957,,
58939,58957,,
68153,58957,,
67159,56979,,
43863,53276,,
26557,26336,,
26559,26336,,
63876,63366,,
63877,63366,,
79877,78889,,
78899,78889,,
78887,78889,,
78883,78889,,
79823,78889,,
81226,78889,,
78897,78889,,
88586,78889,,
78117,78116,,
67517,67516,,
56239,45766,,
56227,45766,,
56126,45766,,
45959,45766,,
45983,45766,,
56127,45766,,
99213,99729,,
99629,99729,,
10209,99729,,
10203,99729,,
46959,46966,,
56257,46966,,
85799,86456,,
76257,76346,,
76159,76346,,
55446,55766,,
95336,95589,,
95343,95589,,
95589,95336,,
95343,95336,,
95139,95336,,
95527,95336,,
55766,55657,,
55446,55657,,
76346,76257,,
76159,76257,,
86683,86647,,
85799,86647,,
75836,87113,,
75833,87113,,
87119,87113,,
87673,87113,,
99729,99943,,
99213,99943,,
99629,99943,,
98947,99943,,
10209,99943,,
10203,99943,,
56239,56847,,
56227,56847,,
56846,56847,,
66376,66487,,
67866,67867,,
11367,91957,,
99986,91957,,
11269,91957,,
11263,91957,,
11223,91957,,
57961,91957,,
99496,91957,,
19197,91957,,
21357,21377,,
32259,32557,,
63876,63567,,
63876,63987,,
26559,26867,,
69213,68197,,
69129,68197,,
15233,15126,,
84129,84146,,
84123,84146,,
84129,84137,,
84123,84137,,
15233,15127,,
93833,93866,,
93839,93866,,
13663,13656,,
13669,13656,,
62727,62726,,
62427,62426,,
52627,52626,,
79877,78466,,
78347,78466,,
81226,78466,,
67867,67866,,
66487,66376,,
10103,11669,,
22506,11319,,
22507,11319,,
49516,59416,,
49517,59416,,
49529,59416,,
49516,49916,,
48993,49916,,
49517,49916,,
49529,49916,,
49516,49116,,
49517,49116,,
49529,49116,,
49516,39716,,
49517,39716,,
49529,39716,,
78797,88496,,
78797,78996,,
78797,69716,,
28763,28656,,
28779,28656,,
28137,28656,,
28696,28136,,
28779,28136,,
28137,28136,,
97117,97116,,
94516,97116,,
69933,69939,,
69933,69719,,
69939,69933,,
69719,69933,,
28763,28137,,
28696,28137,,
28779,28137,,
28656,28137,,
28136,28137,,
28763,29933,,
28696,29933,,
28779,29933,,
39499,31843,,
39746,49387,,
78797,69717,,
78797,88497,,
78896,88497,,
49516,39817,,
49517,39817,,
49529,39817,,
49516,48197,,
49517,48197,,
49529,48197,,
49516,48897,,
49916,48897,,
48993,48897,,
49517,48897,,
49529,48897,,
49516,59417,,
10109,11753,,
10103,11753,,
56239,45987,,
56227,45987,,
56126,45987,,
45959,45987,,
45983,45987,,
56127,45987,,
78116,78347,,
78466,78347,,
81226,78347,,
79877,78887,,
78899,78887,,
78889,78887,,
78883,78887,,
79823,78887,,
81226,78887,,
88586,78887,,
11216,19397,,
99986,19397,,
11219,19397,,
11223,19397,,
19197,19397,,
21356,21357,,
52626,52627,,
62426,62427,,
82589,82387,,
82583,82387,,
82586,82387,,
93226,93437,,
13663,13657,,
13669,13657,,
53363,43457,,
43366,43457,,
93833,93867,,
93839,93867,,
16689,16659,,
56136,46936,,
56137,46936,,
26739,26736,,
26733,26736,,
26739,26426,,
26733,26426,,
76743,76746,,
86236,76746,,
76549,76546,,
36277,36586,,
36397,36586,,
27727,27726,,
27527,27726,,
28947,28933,,
28819,28933,,
29547,29636,,
86926,86927,,
86883,86927,,
61637,86927,,
96339,96127,,
96333,96127,,
13147,13259,,
13146,13259,,
96339,96426,,
96333,96426,,
29196,29197,,
29636,29547,,
27446,27759,,
27787,27759,,
27527,27759,,
28819,27759,,
27726,27727,,
27527,27727,,
76549,76547,,
76746,76747,,
76743,76747,,
86236,76747,,
26739,26637,,
26733,26637,,
16659,16537,,
29717,29719,,
28793,29719,,
91356,91393,,
91359,91393,,
76746,76743,,
76747,76743,,
28933,28956,,
28819,28956,,
11726,29196,,
29197,29196,,
11717,29196,,
11727,11866,,
11726,11866,,
11569,11866,,
11367,11866,,
11269,11866,,
91383,91276,,
99496,91276,,
89277,91139,,
81926,91139,,
81726,91139,,
81929,91139,,
91223,91139,,
81226,91139,,
53261,91139,,
91186,91139,,
99496,91139,,
56239,66166,,
66167,66166,,
56239,56846,,
56227,56846,,
56847,56846,,
56239,45959,,
56227,45959,,
45766,45959,,
45987,45959,,
45316,45379,,
45219,44249,,
45217,44249,,
44273,44249,,
31997,41189,,
41196,41189,,
41183,41189,,
95289,95386,,
95269,95386,,
95383,95386,,
52963,41183,,
31997,41183,,
41196,41183,,
41189,41183,,
44273,44243,,
56239,45983,,
56227,45983,,
45766,45983,,
45987,45983,,
56239,66167,,
66166,66167,,
28933,28947,,
28819,28947,,
76746,76549,,
76546,76549,,
76547,76549,,
76747,76549,,
91356,91457,,
91359,91457,,
28793,29717,,
22779,22773,,
52463,53456,,
53153,53156,,
53147,53156,,
17136,97746,,
97937,97746,,
62187,62196,,
62183,62196,,
35923,35926,,
27726,27446,,
27727,27446,,
27527,27446,,
44897,54289,,
54283,54289,,
54299,54289,,
51277,51273,,
41699,41886,,
54283,54293,,
54299,54293,,
54297,54293,,
65976,65753,,
65767,65753,,
79977,78883,,
79877,78883,,
89277,78883,,
79487,78883,,
71926,78883,,
79486,78883,,
78889,78883,,
78887,78883,,
79823,78883,,
81226,78883,,
71826,78883,,
88976,78883,,
78897,78883,,
88586,78883,,
88973,79823,,
79977,79823,,
76647,79823,,
79877,79823,,
99396,79823,,
89277,79823,,
89869,79823,,
78899,79823,,
71726,79823,,
79487,79823,,
71926,79823,,
79486,79823,,
79739,79823,,
78889,79823,,
78887,79823,,
78883,79823,,
79257,79823,,
79266,79823,,
91223,79823,,
81226,79823,,
71826,79823,,
89913,79823,,
53761,79823,,
79973,79823,,
88976,79823,,
89963,79823,,
99496,79823,,
88586,79823,,
18539,79823,,
58679,79823,,
98833,98837,,
98849,98837,,
36277,36357,,
53646,53457,,
17136,97757,,
97937,97757,,
52463,53157,,
52469,53757,,
74136,74117,,
35926,35923,,
36277,36436,,
36397,36436,,
27446,27753,,
27787,27753,,
27527,27753,,
27753,27786,,
27787,27786,,
28819,27786,,
28127,28126,,
79977,79879,,
79877,79879,,
89277,79879,,
71926,79879,,
71839,79879,,
79739,79879,,
79823,79879,,
81226,79879,,
71826,79879,,
79973,79879,,
71833,79879,,
57989,79879,,
77893,78819,,
77879,78819,,
81226,78819,,
99629,98969,,
10209,98969,,
10203,98969,,
92666,92569,,
92467,92569,,
44627,44556,,
44556,44627,,
92666,92563,,
92467,92563,,
99629,98963,,
10209,98963,,
10203,98963,,
10109,22563,,
10103,22563,,
76647,76713,,
28126,28127,,
27759,27787,,
27753,27787,,
27786,27787,,
28819,27787,,
35923,35927,,
23626,23543,,
23627,23543,,
23427,23543,,
23549,23543,,
16917,26136,,
97296,97676,,
97779,97676,,
97773,97676,,
38799,38796,,
38783,38796,,
27947,27959,,
27946,27959,,
25916,25929,,
25917,25929,,
76769,75836,,
87113,75836,,
87119,75836,,
76667,75836,,
46523,46579,,
35799,35793,,
35589,35793,,
45399,46573,,
46523,46573,,
87113,75833,,
87119,75833,,
76276,75833,,
76667,75833,,
25916,25923,,
25917,25923,,
27947,27953,,
27946,27953,,
38799,38797,,
38783,38797,,
97779,17147,,
97773,17147,,
16633,16943,,
16949,16943,,
28169,28163,,
28166,28163,,
32126,32213,,
32127,32213,,
79977,79257,,
79877,79257,,
79126,79257,,
71926,79257,,
71839,79257,,
79823,79257,,
79266,79257,,
81226,79257,,
61566,79257,,
68887,79257,,
86883,87639,,
87993,87639,,
87996,87639,,
87597,87639,,
87833,87639,,
93257,93356,,
92483,93356,,
68887,68796,,
56227,45426,,
56126,45426,,
45427,45426,,
56127,45426,,
45317,45426,,
45226,45426,,
33223,33219,,
33229,33219,,
32126,32219,,
32127,32219,,
28169,28166,,
28163,28166,,
16633,16949,,
16943,16949,,
99899,91816,,
99893,91816,,
91817,91816,,
77683,77443,,
77689,77443,,
88973,88953,,
81226,88953,,
79977,79266,,
79877,79266,,
79126,79266,,
71926,79266,,
71839,79266,,
79823,79266,,
79257,79266,,
81226,79266,,
68887,79266,,
56227,46336,,
10109,11999,,
10103,11999,,
99729,99969,,
99629,99969,,
10209,99969,,
10203,99969,,
87673,87699,,
99213,87699,,
10209,87699,,
87673,87569,,
87113,87119,,
75836,87119,,
75833,87119,,
87673,87119,,
10303,87119,,
10503,42669,,
10509,42669,,
10503,42993,,
87113,76643,,
56239,57567,,
56489,57567,,
57553,57567,,
68887,68327,,
74853,74899,,
74859,74899,,
77689,78519,,
77683,77459,,
81226,87397,,
53641,87597,,
88973,91223,,
79877,91223,,
11726,91223,,
99396,91223,,
81926,91223,,
89869,91223,,
81726,91223,,
71926,91223,,
81929,91223,,
91139,91223,,
78883,91223,,
81226,91223,,
88976,91223,,
89963,91223,,
99157,91223,,
99496,91223,,
88586,91223,,
88973,81226,,
79977,81226,,
79877,81226,,
99396,81226,,
89277,81226,,
79126,81226,,
81926,81226,,
89869,81226,,
72396,81226,,
78899,81226,,
71726,81226,,
79487,81226,,
92453,81226,,
61866,81226,,
61867,81226,,
61987,81226,,
71237,81226,,
99357,81226,,
81726,81226,,
71926,81226,,
79486,81226,,
71236,81226,,
61986,81226,,
61997,81226,,
79477,81226,,
99586,81226,,
72727,81226,,
81526,81226,,
71997,81226,,
71839,81226,,
88977,81226,,
72646,81226,,
81929,81226,,
91383,81226,,
77893,81226,,
79739,81226,,
89377,81226,,
78889,81226,,
78466,81226,,
78347,81226,,
78887,81226,,
91139,81226,,
78883,81226,,
79823,81226,,
79879,81226,,
78819,81226,,
79257,81226,,
88953,81226,,
79266,81226,,
87397,81226,,
91223,81226,,
71826,81226,,
89913,81226,,
53651,81226,,
53671,81226,,
53761,81226,,
53771,81226,,
53781,81226,,
53751,81226,,
53921,81226,,
53261,81226,,
91277,81226,,
70941,81226,,
71101,81226,,
91186,81226,,
53961,81226,,
98833,81226,,
68887,81226,,
79973,81226,,
88976,81226,,
89963,81226,,
99157,81226,,
71823,81226,,
72717,81226,,
99496,81226,,
78897,81226,,
88576,81226,,
88586,81226,,
72643,81226,,
71833,81226,,
99559,81226,,
99579,81226,,
57989,81226,,
79977,71826,,
79877,71826,,
71926,71826,,
71839,71826,,
78887,71826,,
78883,71826,,
79823,71826,,
79879,71826,,
81226,71826,,
79973,71826,,
71823,71826,,
88586,71826,,
72643,71826,,
71833,71826,,
57989,71826,,
79126,68776,,
68767,68776,,
68887,68776,,
56239,56489,,
56227,56489,,
47947,56489,,
56126,56489,,
57566,56489,,
57567,56489,,
57553,56489,,
56127,56489,,
47846,56489,,
54933,54939,,
18727,18559,,
94267,94379,,
64987,64999,,
64986,64999,,
64987,64869,,
64986,64869,,
43293,43299,,
21193,11917,,
43283,43293,,
64987,64993,,
64986,64993,,
86417,85597,,
56239,57553,,
47947,57553,,
57566,57553,,
57567,57553,,
56489,57553,,
47846,57553,,
11907,11636,,
88973,89913,,
79877,89913,,
89277,89913,,
81726,89913,,
88977,89913,,
79823,89913,,
81226,89913,,
88976,89913,,
99496,89913,,
88777,89913,,
87597,53641,,
81226,53651,,
79877,53671,,
81226,53671,,
88576,53671,,
88777,53671,,
79877,53761,,
79823,53761,,
81226,53761,,
99496,53761,,
79877,53771,,
89277,53771,,
89377,53771,,
81226,53771,,
79973,53771,,
99496,53771,,
79877,53781,,
81726,53781,,
81526,53781,,
89377,53781,,
81226,53781,,
99496,53781,,
79877,53751,,
81226,53751,,
99496,53751,,
81226,53921,,
79877,53261,,
81926,53261,,
81726,53261,,
91383,53261,,
91139,53261,,
79823,53261,,
81226,53261,,
70941,53261,,
91186,53261,,
99496,53261,,
91383,91277,,
91276,91277,,
91139,91277,,
81226,91277,,
99496,91277,,
91383,70941,,
81226,70941,,
53961,70941,,
99496,70941,,
81226,71101,,
99496,71101,,
92453,54751,,
81226,54751,,
99496,54751,,
81926,91186,,
81726,91186,,
91383,91186,,
92399,91186,,
91276,91186,,
91139,91186,,
81226,91186,,
53261,91186,,
99496,91186,,
99986,57961,,
11269,57961,,
11219,57961,,
11263,57961,,
11223,57961,,
91957,57961,,
99496,57961,,
19197,57961,,
89277,53961,,
81226,53961,,
70941,53961,,
99496,53961,,
22177,22153,,
22346,22153,,
85937,95123,,
17426,17323,,
17327,17323,,
17426,17339,,
17327,17339,,
22177,22189,,
22346,22189,,
66373,57847,,
66379,57847,,
56557,56443,,
49516,48953,,
49517,48953,,
49516,48993,,
49916,48993,,
49517,48993,,
49516,49593,,
49517,49593,,
41556,41553,,
41657,41553,,
43447,43553,,
43446,43553,,
45517,45513,,
45506,45513,,
49656,49653,,
49657,49653,,
27937,27933,,
27936,27933,,
24579,24676,,
42219,42237,,
32257,42237,,
32266,42237,,
32253,42237,,
32166,42237,,
32167,42237,,
32179,42237,,
10503,42237,,
10509,42237,,
24579,24677,,
27937,27949,,
27936,27949,,
27937,27939,,
27936,27939,,
49656,49659,,
49657,49659,,
45517,45519,,
45506,45519,,
43447,43559,,
43446,43559,,
41556,41559,,
41657,41559,,
49516,49599,,
49517,49599,,
49516,48969,,
49517,48969,,
46966,46959,,
46966,56257,,
72633,72667,,
22269,22267,,
22263,22267,,
99629,99283,,
10203,99283,,
91257,91253,,
81856,91253,,
95226,95213,,
85927,95213,,
99457,99243,,
99256,99243,,
88887,97363,,
98346,97363,,
98467,97363,,
97369,97363,,
98249,99223,,
99217,99223,,
88887,99223,,
98346,99223,,
88846,99223,,
98467,99223,,
26727,26526,,
88887,97369,,
98346,97369,,
98467,97369,,
97363,97369,,
93856,94329,,
99457,99249,,
99256,99249,,
95226,95219,,
85927,95219,,
95226,94269,,
91257,91159,,
81856,91159,,
99629,91119,,
10203,91119,,
99213,99219,,
99629,99219,,
10209,99219,,
10203,99219,,
29537,29536,,
29533,29536,,
19127,19126,,
69919,69826,,
69913,69826,,
59329,59326,,
59323,59326,,
39729,39726,,
39723,39726,,
29423,29626,,
29427,29626,,
89713,89726,,
89719,89726,,
69113,69127,,
59839,69127,,
89713,89727,,
89719,89727,,
39729,39627,,
39723,39627,,
59329,59327,,
59323,59327,,
69919,69827,,
69913,69827,,
89316,89327,,
89313,89327,,
89983,99117,,
89826,99117,,
29536,29537,,
29533,29537,,
43863,43777,,
25736,25723,,
25727,25723,,
29717,28793,,
28646,28643,,
28647,28643,,
13656,13663,,
13657,13663,,
15126,15233,,
15127,15233,,
13656,13669,,
13657,13669,,
28646,28649,,
28647,28649,,
22773,22779,,
25736,25729,,
25727,25729,,
18253,19127,,
35889,35576,,
15173,15186,,
54276,44679,,
44683,44679,,
44796,44679,,
44797,44679,,
44667,44679,,
39756,39849,,
39747,39849,,
38796,38799,,
38797,38799,,
39756,39843,,
39747,39843,,
54276,44683,,
44679,44683,,
44796,44683,,
44797,44683,,
44667,44683,,
56189,56186,,
56183,56186,,
49533,49346,,
98379,88929,,
87673,88929,,
99213,88929,,
99629,88929,,
10209,88929,,
10203,88929,,
10503,42999,,
42219,42146,,
32266,42146,,
10503,42146,,
98379,87673,,
87113,87673,,
87699,87673,,
87569,87673,,
87119,87673,,
88929,87673,,
88933,87673,,
98379,98253,,
99213,98253,,
99629,98253,,
10209,98253,,
10203,98253,,
49533,49547,,
49539,49547,,
73423,66787,,
29523,28596,,
13259,13146,,
74183,64976,,
64969,64976,,
64173,64176,,
45219,45316,,
45229,45316,,
44249,45316,,
45217,45316,,
44273,45316,,
45213,45316,,
35437,35436,,
62983,62769,,
62753,62769,,
45399,46239,,
46523,46239,,
35793,35799,,
78933,78839,,
31713,39597,,
20087,99346,,
45399,46233,,
35437,35827,,
45219,45217,,
45229,45217,,
45379,45217,,
44249,45217,,
45316,45217,,
44273,45217,,
45213,45217,,
64173,64177,,
74183,64977,,
64969,64977,,
64976,64977,,
28596,28497,,
29523,28497,,
29299,29266,,
12439,99896,,
99193,91216,,
91219,91216,,
71639,71646,,
71613,71646,,
61859,61756,,
52963,51976,,
51273,51276,,
51277,51276,,
32213,32126,,
32219,32126,,
22729,22836,,
22723,22836,,
22349,22336,,
22343,22336,,
92569,92666,,
92563,92666,,
42219,42329,,
32166,42329,,
32179,42329,,
10503,42329,,
10509,42329,,
92569,92467,,
92563,92467,,
22349,22337,,
22343,22337,,
22729,22727,,
22723,22727,,
32213,32127,,
32219,32127,,
41699,41687,,
41886,41687,,
51273,51277,,
51276,51277,,
52963,51587,,
61859,61757,,
71639,71647,,
71673,71647,,
71613,71647,,
99193,91117,,
91219,91117,,
59737,59827,,
59736,59827,,
46253,46276,,
46269,46276,,
94693,94656,,
95729,94656,,
94656,94693,,
94657,94693,,
17826,17823,,
16997,17823,,
39499,39493,,
57847,66373,,
67156,66373,,
57847,66379,,
67156,66379,,
28763,29939,,
28696,29939,,
28779,29939,,
28763,27289,,
28696,27289,,
28779,27289,,
27283,27289,,
17826,17829,,
16997,17829,,
94656,95729,,
94693,94657,,
95729,94657,,
83343,83267,,
46253,46257,,
46269,46257,,
16767,16367,,
96766,16367,,
26263,26177,,
36169,26967,,
36163,26967,,
58956,58939,,
58957,58939,,
53976,54949,,
54943,54949,,
53977,54949,,
53367,53369,,
53366,53369,,
49977,49989,,
59196,49989,,
56136,46949,,
56137,46949,,
52197,42989,,
52196,42989,,
53147,43979,,
52483,42889,,
11326,58453,,
58113,58453,,
86856,86683,,
86947,86683,,
78797,78693,,
78896,78693,,
78523,75337,,
77696,78643,,
77787,78643,,
82127,71773,,
72746,71773,,
74797,75723,,
74896,75723,,
74587,74589,,
74296,74589,,
74896,74589,,
79146,71559,,
71566,71559,,
72487,71599,,
72486,71599,,
86456,85799,,
86647,85799,,
86683,85799,,
46239,45399,,
46233,45399,,
11336,58229,,
58113,58229,,
69536,69537,,
26569,26563,,
26946,26563,,
48729,48723,,
48626,48723,,
48727,48723,,
42889,42973,,
53156,53153,,
53147,53153,,
52197,52183,,
52196,52183,,
56136,56133,,
56137,56133,,
49977,59173,,
59196,59173,,
53367,53363,,
53366,53363,,
53976,54943,,
53977,54943,,
58956,68153,,
58957,68153,,
51649,51733,,
16289,16296,,
16383,16296,,
77719,76596,,
77713,76596,,
56383,56396,,
56389,56396,,
36169,36176,,
36163,36176,,
26263,16566,,
66553,66566,,
66667,66566,,
57269,56476,,
56593,56476,,
95589,95343,,
95336,95343,,
39597,31713,,
73896,73793,,
73897,73793,,
10709,85943,,
10703,85943,,
55657,55446,,
44727,44526,,
17823,17826,,
17829,17826,,
28763,29436,,
28779,29436,,
28763,29327,,
28779,29327,,
17823,16997,,
17829,16997,,
85943,85947,,
10709,85947,,
10703,85947,,
85947,85949,,
73896,74829,,
73897,74829,,
39686,31619,,
22387,31256,,
21193,31256,,
95589,95139,,
95583,95139,,
95527,95139,,
67687,69839,,
67696,69839,,
89986,99499,,
91237,99499,,
99593,99499,,
20087,88886,,
67687,69833,,
67696,69833,,
61736,61539,,
61623,61539,,
20097,98293,,
20087,98293,,
89986,99593,,
91237,99593,,
99499,99593,,
29516,29517,,
75223,74586,,
74577,74586,,
97869,97677,,
97753,97677,,
97869,97686,,
97753,97686,,
75223,74577,,
74586,74577,,
29516,28593,,
29517,28593,,
58229,58119,,
48839,58119,,
11336,58119,,
58113,58119,,
18466,18543,,
18727,18543,,
10603,18543,,
18999,18983,,
42219,31739,,
32166,31739,,
32179,31739,,
10509,31739,,
58119,48839,,
11336,48839,,
58113,48839,,
91237,91227,,
77193,16786,,
77193,16877,,
47199,56273,,
99417,98596,,
98596,99417,,
41316,37697,,
56273,47199,,
96263,65247,,
19449,19337,,
19433,19337,,
19546,19337,,
53637,53736,,
85349,85566,,
73247,63683,,
55649,55653,,
32236,22556,,
32627,22556,,
12453,12449,,
12656,12449,,
32236,32237,,
85349,85567,,
76627,75897,,
85566,85349,,
22556,32236,,
33353,32236,,
32236,33353,,
32627,33353,,
36533,36536,,
36539,36536,,
26569,26946,,
26563,26946,,
69537,69536,,
19337,19449,,
19433,19449,,
19546,19449,,
11429,19449,,
18443,18449,,
19337,19433,,
19449,19433,,
19737,19433,,
19546,19433,,
36533,36527,,
36539,36527,,
22556,32627,,
33353,32627,,
62826,62336,,
52213,52646,,
52236,52646,,
52237,52646,,
52647,52646,,
19433,19737,,
19337,19546,,
19449,19546,,
19433,19546,,
12656,12657,,
85757,84999,,
62826,62337,,
71926,98833,,
79823,98833,,
98837,98833,,
81226,98833,,
89963,98833,,
98836,98833,,
98849,98833,,
75886,75493,,
69293,69299,,
69179,69299,,
46986,46987,,
69299,69293,,
52216,52333,,
96877,96486,,
83859,83853,,
47563,47539,,
47636,47539,,
87346,87347,,
96736,96617,,
17426,17246,,
17339,17246,,
17426,17237,,
53727,53636,,
18563,18776,,
43796,43696,,
43687,43696,,
47157,47169,,
47156,47169,,
47163,47169,,
47157,37756,,
23799,24823,,
27653,26793,,
27639,26793,,
47157,47163,,
47156,47163,,
47169,47163,,
66373,67156,,
63687,63786,,
22346,22347,,
63786,63687,,
91766,99689,,
91827,99689,,
92909,99689,,
99427,99429,,
29247,29333,,
79146,79547,,
38326,27937,,
38327,27937,,
27933,27937,,
27949,27937,,
27939,27937,,
28279,28213,,
28213,28279,,
38326,38826,,
38327,38826,,
38327,27936,,
27933,27936,,
27949,27936,,
27939,27936,,
98583,98669,,
29536,29533,,
29537,29533,,
21667,21666,,
49977,49986,,
28643,28646,,
28649,28646,,
28643,28647,,
28649,28647,,
28596,29523,,
28497,29523,,
11727,11736,,
11726,11736,,
11737,11736,,
11717,11736,,
12453,12656,,
12449,12656,,
12657,12656,,
13249,13246,,
13243,13246,,
13249,13247,,
13243,13247,,
95899,15256,,
16659,16689,,
16537,16689,,
17417,16689,,
97746,17136,,
97757,17136,,
97937,17136,,
49657,19256,,
19863,19869,,
21233,21113,,
21219,21113,,
21769,21756,,
21763,21756,,
21757,21756,,
22177,22346,,
22153,22346,,
22189,22346,,
22347,22346,,
22386,22377,,
22387,22377,,
22396,22377,,
22386,22387,,
22377,22387,,
21193,22387,,
22396,22387,,
23626,23427,,
23627,23427,,
23543,23427,,
23549,23427,,
23626,23549,,
23627,23549,,
23543,23549,,
23427,23549,,
23933,23923,,
23939,23923,,
10103,23923,,
23929,23933,,
23923,23933,,
23939,23933,,
10109,23933,,
10103,23933,,
23929,23939,,
33263,23939,,
23923,23939,,
23933,23939,,
10109,23939,,
10103,23939,,
25317,24393,,
25447,25446,,
25549,25446,,
25543,25446,,
26556,26559,,
26557,26559,,
26336,26559,,
26867,26559,,
26739,26733,,
26736,26733,,
26426,26733,,
26637,26733,,
26789,26783,,
27653,27639,,
27757,27639,,
27636,27639,,
26793,27639,,
28383,28386,,
28476,28386,,
28389,28387,,
28383,28387,,
28476,28387,,
28989,28983,,
28996,28983,,
28997,28983,,
28989,28996,,
28983,28996,,
28997,28996,,
28989,28997,,
28983,28997,,
28996,28997,,
42219,31853,,
42237,31853,,
42329,31853,,
10503,31853,,
10509,31853,,
32617,32629,,
32767,32763,,
32767,32769,,
35589,35473,,
35793,35589,,
36296,36397,,
36277,36397,,
36586,36397,,
36436,36397,,
37116,36397,,
35973,36823,,
35979,36823,,
35889,36823,,
35976,36823,,
36829,36823,,
36296,37116,,
36277,37116,,
36397,37116,,
39329,38297,,
39163,39166,,
39169,39166,,
44526,43396,,
45219,44273,,
45316,44273,,
46183,46186,,
47647,47356,,
56127,47356,,
47746,47543,,
47549,47543,,
47546,47543,,
47547,47543,,
47549,47546,,
47747,47546,,
47543,47546,,
47547,47546,,
47549,47547,,
47543,47547,,
47546,47547,,
48729,48626,,
48723,48626,,
48727,48626,,
48729,48727,,
48723,48727,,
48626,48727,,
49516,49517,,
59416,49517,,
49916,49517,,
49116,49517,,
39716,49517,,
39817,49517,,
48197,49517,,
48897,49517,,
48953,49517,,
48993,49517,,
49593,49517,,
49599,49517,,
48969,49517,,
49529,49517,,
52197,52196,,
42989,52196,,
52183,52196,,
52213,52236,,
52646,52236,,
52237,52236,,
52213,52237,,
52646,52237,,
52236,52237,,
53976,53977,,
54949,53977,,
54943,53977,,
55373,55376,,
55379,55376,,
56396,56389,,
56497,56389,,
57679,57663,,
57663,57679,,
58279,58367,,
58263,58367,,
58376,58367,,
58279,58376,,
58263,58376,,
58367,58376,,
62187,62183,,
62196,62183,,
66527,66346,,
67153,67159,,
66596,67159,,
79126,68887,,
68767,68887,,
68547,68887,,
79487,68887,,
79486,68887,,
79257,68887,,
68796,68887,,
79266,68887,,
68327,68887,,
81226,68887,,
68776,68887,,
69413,69419,,
22006,69419,,
22007,69419,,
71646,71613,,
71647,71613,,
72357,72457,,
72356,72457,,
72357,72466,,
72356,72466,,
72487,72746,,
82127,72746,,
71773,72746,,
74857,74853,,
74899,74853,,
74856,74853,,
74859,74853,,
74857,74856,,
74853,74856,,
74859,74856,,
74857,74859,,
74899,74859,,
74853,74859,,
74856,74859,,
76759,76646,,
76647,76646,,
76753,76646,,
76773,76646,,
76779,76646,,
76759,76753,,
76647,76753,,
76646,76753,,
76773,76753,,
76779,76753,,
76759,76773,,
76647,76773,,
76646,76773,,
76753,76773,,
86577,76773,,
76779,76773,,
77537,77723,,
79619,79626,,
79613,79626,,
79977,79973,,
79877,79973,,
89277,79973,,
71926,79973,,
71839,79973,,
79739,79973,,
78883,79973,,
79823,79973,,
79879,79973,,
81226,79973,,
71826,79973,,
53771,79973,,
89963,79973,,
71823,79973,,
71833,79973,,
82589,82586,,
82583,82586,,
82897,82586,,
82387,82586,,
84133,84139,,
85273,85279,,
86157,86236,,
76746,86236,,
76747,86236,,
86237,86236,,
86276,86236,,
86157,86237,,
86236,86237,,
86276,86237,,
86967,86943,,
86949,86943,,
96186,86943,,
97259,87956,,
97253,87956,,
97256,87956,,
97157,87956,,
21806,88289,,
21807,88289,,
88973,88976,,
79977,88976,,
79877,88976,,
11726,88976,,
99396,88976,,
81926,88976,,
89869,88976,,
71926,88976,,
88977,88976,,
78883,88976,,
79823,88976,,
91223,88976,,
81226,88976,,
89913,88976,,
89963,88976,,
99157,88976,,
99496,88976,,
88586,88976,,
18539,88976,,
88993,89926,,
79977,89963,,
79877,89963,,
99396,89963,,
89277,89963,,
81926,89963,,
89869,89963,,
99357,89963,,
81726,89963,,
71926,89963,,
81929,89963,,
81226,89963,,
98833,89963,,
99157,89963,,
99496,89963,,
99347,89963,,
91666,91667,,
99357,91667,,
88976,91667,,
99496,91667,,
91766,91827,,
62787,91827,,
99689,91827,,
92743,91827,,
82933,92129,,
81659,92129,,
82913,92129,,
92329,92323,,
84859,94156,,
84853,94156,,
94483,95423,,
95319,95423,,
94487,95423,,
95619,95613,,
95176,95613,,
95517,95613,,
95899,95893,,
97777,97679,,
97673,97679,,
97746,97937,,
97757,97937,,
17136,97937,,
20406,97937,,
20407,97937,,
98729,98527,,
98723,98527,,
99457,99256,,
89957,99256,,
99243,99256,,
99249,99256,,
91766,99683,,
99689,99683,,
91827,99683,,
99917,99816,,
99929,99816,,
99923,99816,,
99899,99893,,
91816,99893,,
91817,99893,,
56239,56127,,
56227,56127,,
56126,56127,,
56477,56127,,
57523,56127,,
45766,56127,,
45987,56127,,
45426,56127,,
56489,56127,,
33343,33339,,
33339,33343,,
28763,27283,,
28696,27283,,
28779,27283,,
45427,45317,,
45426,45317,,
19449,11429,,
97777,97673,,
96899,97673,,
97679,97673,,
88973,99157,,
99396,99157,,
89277,99157,,
89869,99157,,
99357,99157,,
81726,99157,,
88977,99157,,
81226,99157,,
88976,99157,,
89963,99157,,
99496,99157,,
99347,99157,,
65976,65767,,
65753,65767,,
56239,56426,,
56227,56426,,
92229,91616,,
54539,54663,,
28763,28533,,
28696,28533,,
28779,28533,,
49516,49529,,
59416,49529,,
49916,49529,,
49116,49529,,
39716,49529,,
39817,49529,,
48197,49529,,
48897,49529,,
49517,49529,,
67273,57643,,
67179,57643,,
74587,74896,,
74797,74896,,
75723,74896,,
46579,46639,,
46573,46639,,
45399,46639,,
46523,46639,,
84139,84133,,
46526,46427,,
26749,26743,,
44679,44796,,
44683,44796,,
44797,44796,,
45723,44796,,
45729,44796,,
44679,44797,,
44683,44797,,
44796,44797,,
45723,44797,,
45729,44797,,
16289,96897,,
16383,96897,,
67179,64547,,
55663,56729,,
55419,56729,,
67179,56729,,
56653,56729,,
55663,56653,,
49587,49676,,
49676,49587,,
65566,65289,,
65627,65289,,
72269,47697,,
72263,47697,,
72269,47696,,
56383,56497,,
56389,56497,,
92776,92887,,
12177,92887,,
12176,92887,,
97259,97157,,
97253,97157,,
97256,97157,,
87956,97157,,
92129,82933,,
81659,82933,,
82913,82933,,
23217,23216,,
23216,23217,,
97116,97117,,
94516,97117,,
49977,59196,,
49989,59196,,
59173,59196,,
71233,71566,,
11727,11737,,
11726,11737,,
11569,11737,,
11736,11737,,
11717,11737,,
75323,75229,,
75229,75323,,
14387,14586,,
14396,14586,,
14396,14587,,
78797,78896,,
89123,78896,,
89483,78896,,
89489,78896,,
79919,78896,,
78769,78896,,
88497,78896,,
78693,78896,,
78549,78896,,
68996,68983,,
21769,21757,,
21763,21757,,
21997,21757,,
21756,21757,,
59839,59516,,
32169,32156,,
32257,32156,,
32266,32156,,
32253,32156,,
32256,32156,,
32166,32156,,
32167,32156,,
32179,32156,,
32169,32257,,
42237,32257,,
32156,32257,,
32266,32257,,
32253,32257,,
32256,32257,,
32166,32257,,
32167,32257,,
32179,32257,,
32169,32266,,
42237,32266,,
42146,32266,,
32156,32266,,
32257,32266,,
32253,32266,,
32256,32266,,
32166,32266,,
32167,32266,,
32179,32266,,
32169,32253,,
42219,32253,,
42237,32253,,
32156,32253,,
32257,32253,,
32266,32253,,
32256,32253,,
32166,32253,,
32167,32253,,
32179,32253,,
32169,32256,,
32156,32256,,
32257,32256,,
32266,32256,,
32253,32256,,
32166,32256,,
32167,32256,,
32179,32256,,
32169,32166,,
42219,32166,,
42237,32166,,
42329,32166,,
31739,32166,,
32156,32166,,
32257,32166,,
32266,32166,,
32253,32166,,
32256,32166,,
32167,32166,,
32179,32166,,
32169,32167,,
42219,32167,,
42237,32167,,
32156,32167,,
32257,32167,,
32266,32167,,
32253,32167,,
32256,32167,,
32166,32167,,
32179,32167,,
53639,53843,,
63216,53843,,
59786,59796,,
59797,59796,,
59783,59796,,
59886,59796,,
59789,59796,,
59883,59796,,
59889,59796,,
59793,59796,,
59787,59796,,
59799,59796,,
59786,59797,,
59796,59797,,
59783,59797,,
59886,59797,,
59789,59797,,
59883,59797,,
59889,59797,,
59793,59797,,
59787,59797,,
59799,59797,,
59786,59783,,
59796,59783,,
59797,59783,,
59886,59783,,
59789,59783,,
59883,59783,,
59889,59783,,
59793,59783,,
59787,59783,,
59799,59783,,
59786,59886,,
59796,59886,,
59797,59886,,
59783,59886,,
59789,59886,,
59883,59886,,
59889,59886,,
59793,59886,,
59787,59886,,
59799,59886,,
59786,59789,,
59796,59789,,
59797,59789,,
59783,59789,,
59886,59789,,
59883,59789,,
59889,59789,,
59793,59789,,
59787,59789,,
59799,59789,,
59786,59883,,
59796,59883,,
59797,59883,,
59783,59883,,
59886,59883,,
59789,59883,,
59889,59883,,
59793,59883,,
59787,59883,,
59799,59883,,
59786,59889,,
59796,59889,,
59797,59889,,
59783,59889,,
59886,59889,,
59789,59889,,
59883,59889,,
59793,59889,,
59787,59889,,
59799,59889,,
59786,59793,,
59796,59793,,
59797,59793,,
59783,59793,,
59886,59793,,
59789,59793,,
59883,59793,,
59889,59793,,
59787,59793,,
59799,59793,,
59786,59787,,
59796,59787,,
59797,59787,,
59783,59787,,
59886,59787,,
59789,59787,,
59883,59787,,
59889,59787,,
59793,59787,,
59799,59787,,
78797,79117,,
78549,79117,,
33627,33636,,
92447,92446,,
82849,92447,,
92446,92447,,
95619,95517,,
95613,95517,,
54299,54297,,
54289,54297,,
54293,54297,,
94483,94487,,
95319,94487,,
95423,94487,,
32169,32179,,
42219,32179,,
42237,32179,,
42329,32179,,
31739,32179,,
32156,32179,,
32257,32179,,
32266,32179,,
32253,32179,,
32256,32179,,
32166,32179,,
32167,32179,,
10503,32179,,
21533,21519,,
76346,76159,,
76257,76159,,
98379,99213,,
99729,99213,,
99943,99213,,
87699,99213,,
99219,99213,,
88929,99213,,
98253,99213,,
99629,99213,,
88933,99213,,
10209,99213,,
10203,99213,,
19157,19146,,
19176,19146,,
82167,82276,,
38796,38783,,
38797,38783,,
37746,37759,,
37747,37759,,
95783,95876,,
95789,95876,,
93866,93833,,
82276,82167,,
26697,26693,,
25389,25393,,
25393,25389,,
16689,17417,,
78833,78933,,
56539,46917,,
46917,56539,,
98379,99629,,
99729,99629,,
99943,99629,,
98969,99629,,
98963,99629,,
99969,99629,,
99283,99629,,
91119,99629,,
99219,99629,,
88929,99629,,
98253,99629,,
99213,99629,,
98573,99629,,
88933,99629,,
10209,99629,,
10203,99629,,
47539,47636,,
18776,18563,,
92129,81659,,
82933,81659,,
81563,81659,,
82913,81659,,
77319,77313,,
77313,77319,,
62466,62457,,
62457,62466,,
27726,27527,,
27727,27527,,
27446,27527,,
27787,27527,,
98833,98836,,
98849,98836,,
78247,78449,,
78426,78449,,
11896,11867,,
11867,11896,,
76596,77719,,
76597,77719,,
63696,63459,,
52866,63459,,
52867,63459,,
44679,63459,,
63453,63459,,
95969,95963,,
94323,94633,,
94329,94633,,
93856,94633,,
93599,94633,,
63697,63453,,
52866,63453,,
63459,63453,,
28933,28819,,
27786,28819,,
27787,28819,,
53119,53113,,
67687,78446,,
69839,67687,,
69833,67687,,
78446,67687,,
68376,67687,,
67696,67687,,
78437,67687,,
68926,67687,,
67796,67687,,
67797,67687,,
68929,67687,,
68923,67687,,
52483,52489,,
31693,32617,,
32629,32617,,
24823,23799,,
46579,46523,,
46573,46523,,
16247,16146,,
46557,46566,,
46489,46566,,
46473,46566,,
46463,46566,,
46456,46566,,
46457,46566,,
33827,43646,,
43486,43646,,
33827,43647,,
43486,43647,,
46566,46557,,
46489,46557,,
46473,46557,,
46463,46557,,
46456,46557,,
46457,46557,,
46566,46489,,
46557,46489,,
46473,46489,,
46463,46489,,
46456,46489,,
46457,46489,,
46566,46473,,
46557,46473,,
46489,46473,,
46463,46473,,
46456,46473,,
46457,46473,,
46566,46463,,
46557,46463,,
46489,46463,,
46473,46463,,
46456,46463,,
46457,46463,,
46566,46456,,
46557,46456,,
46489,46456,,
46473,46456,,
46463,46456,,
46457,46456,,
58406,58687,,
46566,46457,,
46557,46457,,
46489,46457,,
46473,46457,,
46463,46457,,
46456,46457,,
93757,93856,,
94323,93856,,
94329,93856,,
99899,91817,,
91816,91817,,
99893,91817,,
54663,54539,,
98837,98849,,
98833,98849,,
98836,98849,,
94519,93599,,
94323,93599,,
94329,93599,,
47947,47846,,
56477,47846,,
57523,47846,,
56489,47846,,
57553,47846,,
56127,47846,,
95336,95527,,
67687,68376,,
79977,71823,,
79877,71823,,
71926,71823,,
71839,71823,,
81226,71823,,
71826,71823,,
79973,71823,,
71833,71823,,
44796,45723,,
44797,45723,,
44796,45729,,
44797,45729,,
78797,78549,,
78769,78549,,
78896,78549,,
79117,78549,,
43457,43366,,
69839,67696,,
69833,67696,,
67687,67696,,
67796,67696,,
67797,67696,,
68929,67696,,
68923,67696,,
85757,85756,,
55653,55649,,
47563,47537,,
47539,47537,,
53727,53617,,
21349,21219,,
67687,78437,,
12947,21193,,
22386,21193,,
22387,21193,,
22396,21193,,
67687,68926,,
31766,31867,,
31639,31867,,
42126,31867,,
31766,31639,,
31867,31639,,
37746,37773,,
37747,37773,,
76596,77713,,
76597,77713,,
67687,67796,,
67696,67796,,
67687,67797,,
67696,67797,,
78446,68929,,
67687,68929,,
67696,68929,,
67687,68923,,
67696,68923,,
68926,68923,,
95899,66957,,
66976,66957,,
95893,66957,,
66956,66957,,
81226,72717,,
95899,66956,,
95893,66956,,
96369,88277,,
96363,88277,,
97676,97779,,
97296,97779,,
86926,96339,,
86883,96339,,
96127,96339,,
96426,96339,,
86926,96333,,
96127,96333,,
96426,96333,,
97676,97773,,
97296,97773,,
76757,76729,,
82646,81647,,
66596,66477,,
66536,66477,,
66477,66596,,
67153,66496,,
66596,66496,,
66553,66667,,
66566,66667,,
72353,11156,,
58453,11326,,
58229,11336,,
58119,11336,,
46253,46269,,
46276,46269,,
46257,46269,,
58229,58113,,
58119,58113,,
58453,11237,,
76769,76276,,
75836,76667,,
75833,76667,,
81949,81939,,
81943,81939,,
11127,11126,,
11137,11126,,
11346,11126,,
11356,11126,,
11427,11126,,
11126,11127,,
11137,11127,,
11346,11127,,
11356,11127,,
11427,11127,,
11126,11137,,
11127,11137,,
11346,11137,,
11356,11137,,
11427,11137,,
11397,11137,,
11327,11137,,
10109,22439,,
10103,22439,,
54299,54416,,
54289,54416,,
54293,54416,,
98379,98573,,
99729,98573,,
99969,98573,,
88929,98573,,
99629,98573,,
10209,98573,,
10203,98573,,
88973,99496,,
91666,99496,,
11726,99496,,
99396,99496,,
81926,99496,,
89869,99496,,
92453,99496,,
99986,99496,,
99357,99496,,
81726,99496,,
71926,99496,,
99586,99496,,
81526,99496,,
88977,99496,,
81929,99496,,
91383,99496,,
89377,99496,,
91957,99496,,
91276,99496,,
91139,99496,,
78883,99496,,
88953,99496,,
91223,99496,,
81226,99496,,
89913,99496,,
53761,99496,,
53771,99496,,
53781,99496,,
53751,99496,,
53261,99496,,
91277,99496,,
70941,99496,,
71101,99496,,
91186,99496,,
53961,99496,,
88976,99496,,
89963,99496,,
91667,99496,,
99157,99496,,
88586,99496,,
99553,99496,,
99559,99496,,
99579,99496,,
99347,99496,,
79877,78897,,
78887,78897,,
78883,78897,,
79823,78897,,
81226,78897,,
88586,78897,,
79877,88576,,
81226,88576,,
53671,88576,,
88777,88576,,
79977,88586,,
79877,88586,,
89277,88586,,
78899,88586,,
79487,88586,,
71926,88586,,
79486,88586,,
78889,88586,,
78887,88586,,
78883,88586,,
79823,88586,,
81226,88586,,
71826,88586,,
78897,88586,,
66346,66527,,
86157,86276,,
86236,86276,,
86237,86276,,
69216,69213,,
66477,66536,,
77157,77136,,
75336,78523,,
95226,85927,,
95213,85927,,
95219,85927,,
84439,84623,,
84636,84623,,
84637,84623,,
66523,66529,,
66549,66529,,
66596,66523,,
41926,59489,,
58436,58496,,
33727,33726,,
33726,33727,,
43646,33827,,
43647,33827,,
54923,54929,,
54929,54923,,
52489,52483,,
53456,52463,,
53157,52463,,
53456,52469,,
53157,52469,,
66976,12993,,
12977,12993,,
67787,67786,,
67199,67193,,
67193,67199,,
12993,12977,,
76569,76919,,
68197,69129,,
69213,69129,,
53727,53846,,
53156,53147,,
43979,53147,,
53153,53147,,
52489,53147,,
52483,53147,,
52646,52647,,
99943,98943,,
10209,98943,,
10203,98943,,
99629,98947,,
10209,98947,,
10203,98947,,
65646,65649,,
65627,65649,,
75337,65649,,
75336,65649,,
66853,66859,,
66859,66853,,
11126,11346,,
11127,11346,,
11137,11346,,
11356,11346,,
11427,11346,,
11397,11346,,
11327,11346,,
16716,16717,,
16717,16716,,
16659,16646,,
11126,11356,,
11127,11356,,
11137,11356,,
11346,11356,,
11427,11356,,
11397,11356,,
11327,11356,,
74117,74136,,
25479,25287,,
25473,25287,,
25479,25286,,
25473,25286,,
99167,99166,,
99166,99167,,
11126,11427,,
11127,11427,,
11137,11427,,
11346,11427,,
11356,11427,,
71726,72643,,
72727,72643,,
72646,72643,,
81226,72643,,
71826,72643,,
47697,72269,,
47696,72269,,
72263,72269,,
47697,72263,,
72269,72263,,
79977,71833,,
79877,71833,,
71926,71833,,
71839,71833,,
79879,71833,,
81226,71833,,
71826,71833,,
79973,71833,,
57989,71833,,
99496,99553,,
81226,99559,,
99496,99559,,
99357,99579,,
99586,99579,,
81226,99579,,
99496,99579,,
81149,81143,,
65246,96269,,
55556,96269,,
88277,96369,,
88277,96363,,
65247,96263,,
96239,96233,,
16786,77193,,
16877,77193,,
16786,77199,,
16877,77199,,
77193,77199,,
77136,77157,,
81143,81149,,
28127,17847,,
18523,17847,,
11319,19293,,
22506,19293,,
22507,19293,,
38326,38847,,
37467,38847,,
93296,84746,,
11216,19197,,
99986,19197,,
11219,19197,,
11223,19197,,
91957,19197,,
19397,19197,,
57961,19197,,
67776,67737,,
93296,83819,,
10043,10049,,
10029,10049,,
10019,10049,,
10023,10049,,
10013,10049,,
10033,10049,,
10039,10049,,
10059,10049,,
10049,10043,,
10029,10043,,
10019,10043,,
10023,10043,,
10013,10043,,
10033,10043,,
10039,10043,,
10059,10043,,
64996,10043,,
10049,10029,,
10043,10029,,
10019,10029,,
10023,10029,,
10013,10029,,
10033,10029,,
10039,10029,,
10059,10029,,
10049,10019,,
10043,10019,,
10029,10019,,
10023,10019,,
10013,10019,,
10033,10019,,
10039,10019,,
10059,10019,,
10049,10023,,
10043,10023,,
10029,10023,,
10019,10023,,
10013,10023,,
10033,10023,,
10039,10023,,
10059,10023,,
10049,10013,,
10043,10013,,
10029,10013,,
10019,10013,,
10023,10013,,
10033,10013,,
10039,10013,,
10059,10013,,
10049,10033,,
10043,10033,,
10029,10033,,
10019,10033,,
10023,10033,,
10013,10033,,
10039,10033,,
10059,10033,,
10049,10039,,
10043,10039,,
10029,10039,,
10019,10039,,
10023,10039,,
10013,10039,,
10033,10039,,
10059,10039,,
78523,75236,,
10049,10059,,
10043,10059,,
10029,10059,,
10019,10059,,
10023,10059,,
10013,10059,,
10033,10059,,
10039,10059,,
62787,92949,,
91766,92743,,
91827,92743,,
97556,97529,,
97557,97529,,
97556,97523,,
97557,97523,,
99867,19157,,
19146,19157,,
19869,19863,,
92767,92766,,
92826,92849,,
92949,92943,,
92766,92767,,
97107,97106,,
19146,19176,,
42219,41116,,
68983,68996,,
45219,45213,,
45229,45213,,
45217,45213,,
43646,43486,,
43647,43486,,
87673,88933,,
99213,88933,,
99629,88933,,
10209,88933,,
10203,88933,,
81849,82813,,
53843,53639,,
62746,62747,,
62747,62746,,
16383,16319,,
99396,99347,,
89869,99347,,
81726,99347,,
89963,99347,,
99157,99347,,
99496,99347,,
93937,23233,,
77843,87636,,
77879,87636,,
76773,86577,,
76779,86577,,
20027,20057,,
20097,20057,,
20087,20057,,
20016,20057,,
20067,20057,,
20046,20057,,
20047,20057,,
20037,20057,,
20017,20057,,
37697,41316,,
59786,59799,,
71773,59799,,
59796,59799,,
59797,59799,,
59783,59799,,
59886,59799,,
59789,59799,,
59883,59799,,
59889,59799,,
59793,59799,,
59787,59799,,
12947,22396,,
22386,22396,,
22377,22396,,
22387,22396,,
21193,22396,,
86639,61636,,
61637,61636,,
60019,61636,,
60017,61636,,
60029,61636,,
60013,61636,,
60027,61636,,
20057,20027,,
20097,20027,,
20087,20027,,
20016,20027,,
20067,20027,,
20046,20027,,
20047,20027,,
20037,20027,,
20017,20027,,
20057,20056,,
20027,20056,,
20097,20056,,
20087,20056,,
20016,20056,,
20067,20056,,
20046,20056,,
20047,20056,,
20037,20056,,
20017,20056,,
99346,20097,,
88886,20097,,
98293,20097,,
20057,20097,,
20027,20097,,
20087,20097,,
20016,20097,,
91933,20097,,
20067,20097,,
20046,20097,,
20047,20097,,
20037,20097,,
20017,20097,,
99346,20087,,
88886,20087,,
98293,20087,,
20057,20087,,
20027,20087,,
20097,20087,,
20016,20087,,
91933,20087,,
20067,20087,,
20046,20087,,
20047,20087,,
20037,20087,,
20017,20087,,
22563,10109,,
23923,10109,,
22439,10109,,
10103,10109,,
98379,10209,,
99729,10209,,
98969,10209,,
99219,10209,,
88929,10209,,
99213,10209,,
99629,10209,,
98573,10209,,
98947,10209,,
88933,10209,,
10203,10209,,
87113,10309,,
10603,10609,,
85943,10709,,
85947,10709,,
10703,10709,,
85943,10703,,
85947,10703,,
10709,10703,,
10609,10603,,
42219,10503,,
42669,10503,,
42237,10503,,
42146,10503,,
42329,10503,,
31853,10503,,
10509,10503,,
98379,10203,,
99729,10203,,
99943,10203,,
98969,10203,,
98963,10203,,
99969,10203,,
99283,10203,,
99219,10203,,
88929,10203,,
98253,10203,,
99213,10203,,
99629,10203,,
98573,10203,,
98943,10203,,
98947,10203,,
88933,10203,,
10209,10203,,
11753,10103,,
22563,10103,,
22439,10103,,
10109,10103,,
86639,61637,,
86927,61637,,
61636,61637,,
60019,61637,,
60017,61637,,
60029,61637,,
60013,61637,,
60027,61637,,
20057,20016,,
20027,20016,,
20097,20016,,
20087,20016,,
20067,20016,,
20046,20016,,
20047,20016,,
20037,20016,,
20017,20016,,
41316,41317,,
89907,89906,,
81659,81563,,
20097,91933,,
20087,91933,,
92129,82913,,
82933,82913,,
81659,82913,,
20057,20067,,
20027,20067,,
20097,20067,,
20087,20067,,
20016,20067,,
20046,20067,,
20047,20067,,
20037,20067,,
20017,20067,,
11636,11907,,
20057,20046,,
20027,20046,,
20097,20046,,
20087,20046,,
20016,20046,,
20067,20046,,
20047,20046,,
20037,20046,,
20017,20046,,
20057,20047,,
20027,20047,,
20097,20047,,
20087,20047,,
20016,20047,,
20067,20047,,
20046,20047,,
20037,20047,,
20017,20047,,
20057,20037,,
20027,20037,,
20097,20037,,
20087,20037,,
20016,20037,,
20067,20037,,
20046,20037,,
20047,20037,,
20017,20037,,
20057,20017,,
20027,20017,,
20097,20017,,
20087,20017,,
20016,20017,,
20067,20017,,
20046,20017,,
20047,20017,,
20037,20017,,
93296,93286,,
93287,93286,,
42219,10509,,
31853,10509,,
32156,10509,,
10503,10509,,
96553,57289,,
11249,19507,,
11236,19507,,
11206,19507,,
29993,31206,,
11249,11206,,
11236,11206,,
19507,11206,,
82779,81766,,
72667,71666,,
53639,53216,,
52363,52367,,
52369,52367,,
89313,89369,,
92969,91956,,
45517,45506,,
45513,45506,,
45519,45506,,
86967,96186,,
86969,96186,,
86943,96186,,
18523,18539,,
58687,58406,,
71997,49439,,
57989,49439,,
49447,49439,,
72726,49439,,
61636,60019,,
61637,60019,,
60017,60019,,
60029,60019,,
60013,60019,,
60027,60019,,
61636,60017,,
61637,60017,,
60019,60017,,
60029,60017,,
60013,60017,,
60027,60017,,
76753,60029,,
61636,60029,,
61637,60029,,
60019,60029,,
60017,60029,,
60013,60029,,
60027,60029,,
61636,60013,,
61637,60013,,
60019,60013,,
60017,60013,,
60029,60013,,
60027,60013,,
76759,76779,,
76647,76779,,
76646,76779,,
76753,76779,,
76773,76779,,
86639,60027,,
61636,60027,,
61637,60027,,
60019,60027,,
60017,60027,,
60029,60027,,
60013,60027,,
94793,94799,,
94703,94709,,
94709,94703,,
94799,94793,,
58496,58436,,
44679,44667,,
44683,44667,,
71926,57989,,
71839,57989,,
81226,57989,,
71826,57989,,
71833,57989,,
49439,57989,,
79823,58679,,
78887,58929,,
88777,58929,,
36536,36533,,
36527,36533,,
36536,36539,,
36527,36539,,
11727,11717,,
11726,11717,,
11656,11717,,
11967,11717,,
11569,11717,,
29196,11717,,
11736,11717,,
11737,11717,,
17866,18523,,
17847,18523,,
18539,18523,,
68547,68336,,
31867,42126,,
71997,49443,,
88973,88777,,
89913,88777,,
53671,88777,,
88576,88777,,
58929,88777,,
98547,98029,,
98016,98029,,
98013,98029,,
98023,98029,,
98033,98029,,
98517,98029,,
98547,98016,,
98029,98016,,
98013,98016,,
98023,98016,,
98033,98016,,
98517,98016,,
98547,98013,,
98029,98013,,
98016,98013,,
98023,98013,,
98033,98013,,
98517,98013,,
98547,98023,,
98029,98023,,
98016,98023,,
98013,98023,,
98033,98023,,
98517,98023,,
98547,98033,,
98029,98033,,
98016,98033,,
98013,98033,,
98023,98033,,
98517,98033,,
98547,98517,,
98029,98517,,
98016,98517,,
98013,98517,,
98023,98517,,
98033,98517,,
98463,98469,,
38696,38693,,
98469,98463,,
97937,20406,,
20407,20406,,
38623,21206,,
38629,21206,,
28433,21406,,
28349,21406,,
98953,21606,,
98169,21706,,
98163,21706,,
88483,21806,,
88289,21806,,
21807,21806,,
78399,21906,,
78393,21906,,
69413,22006,,
69419,22006,,
59533,22106,,
59539,22106,,
49533,22206,,
49539,22206,,
29769,22406,,
29763,22406,,
11319,22506,,
19293,22506,,
11319,22507,,
19293,22507,,
29769,22407,,
29763,22407,,
49533,22207,,
59533,22107,,
59539,22107,,
69413,22007,,
69419,22007,,
78399,21907,,
78393,21907,,
88483,21807,,
88289,21807,,
21806,21807,,
98169,21707,,
98163,21707,,
28433,21407,,
28349,21407,,
38623,21207,,
38629,21207,,
97937,20407,,
20406,20407,,
59757,59636,,
49443,72726,,
11137,11397,,
11346,11397,,
11356,11397,,
11137,11327,,
11346,11327,,
11356,11327,,
